<?xml version="1.0" encoding="utf-8"?>
<svg height="91" version="1.1" viewBox="0 0 69 91" width="69" xmlns="http://www.w3.org/2000/svg">
  <title>Tombstone icon</title>
  <desc>Based on http://commons.wikimedia.org/wiki/File:Tombstone.PNG</desc>
  <path d="M 1 90 V 15 A 46 46 0 0 1 68 15 V 90 Z" style="fill: rgb(102, 99, 99); stroke: rgb(5, 1, 1);"/>
  <text style="fill: rgb(250, 250, 250); font-family: &quot;Fieldwork Geo&quot;; font-size: 28px; font-weight: 700; text-anchor: middle; white-space: pre;" x="34.5" y="56.177">R.I.P</text>
</svg>